<svg xmlns="http://www.w3.org/2000/svg" width="40" height="36">
    <path fill="#FDB042" fill-rule="evenodd" d="M40.001 18.174L28.148 36h-5.926L33.69 18 22.222 0h5.926l11.853 17.826-.113.174.113.174z" opacity=".6"/>
    <path fill="#FDB042" fill-rule="evenodd" d="M29.137 18.174L17.284 36h-5.926l11.468-18L11.358 0h5.926l11.853 17.826-.113.174.113.174z" opacity=".4"/>
    <path fill="#FDB042" fill-rule="evenodd" d="M17.779 18.174L5.926 36H0l11.468-18L0 0h5.926l11.853 17.826-.113.174.113.174z" opacity=".2"/>
</svg>
