<svg xmlns="http://www.w3.org/2000/svg" width="40" height="36">
    <path fill="#5880E2" fill-rule="evenodd" d="M17.778 36h-5.926L-.001 18.174.112 18l-.113-.174L11.852 0h5.926L6.31 18l11.468 18z" opacity=".6"/>
    <path fill="#5880E2" fill-rule="evenodd" d="M28.642 36h-5.926L10.863 18.174l.113-.174-.113-.174L22.716 0h5.926L17.174 18l11.468 18z" opacity=".4"/>
    <path fill="#5880E2" fill-rule="evenodd" d="M40 36h-5.926L22.221 18.174l.113-.174-.113-.174L34.074 0H40L28.532 18 40 36z" opacity=".2"/>
</svg>
