<svg xmlns="http://www.w3.org/2000/svg" width="20" height="16">
    <path fill="#5332A0" fill-rule="evenodd" d="M20.006 13.575c-1.585 0-3.207-.976-4.229-1.737 1.028-1.1 1.632-2.454 1.632-3.913 0-3.706-3.898-6.711-8.708-6.711-.709 0-1.398.066-2.057.188C8.045.524 9.846-.006 11.811-.006c4.466 0 8.086 2.73 8.086 6.101 0 1.105-.39 2.142-1.071 3.034-.029 1.072.051 3.396 1.18 4.446zm-3.841-5.04c0 3.371-3.62 6.101-8.086 6.101-.956 0-1.872-.126-2.723-.355-1.024.761-2.643 1.734-4.228 1.734.796-.737 1.071-2.107 1.153-3.228C.866 11.689-.006 10.188-.006 8.535c0-3.37 3.62-6.101 8.085-6.101 4.466 0 8.086 2.731 8.086 6.101z"/>
</svg>
