<svg xmlns="http://www.w3.org/2000/svg" width="760" height="673">
    <path fill="#DCD6EC" fill-rule="evenodd" d="M759.985.009L482.41 339.644l272.386 333.368H549.877L379.938 465.027 209.956 673.012H4.986l272.479-333.4L-.016.009h204.92l175.033 214.22L555.015.009h204.97z" opacity=".2"/>
</svg>
