<svg xmlns="http://www.w3.org/2000/svg" width="38" height="38">
    <path fill="#7DD79F" fill-rule="evenodd" d="M4 0h30a4 4 0 0 1 4 4v30a4 4 0 0 1-4 4H4a4 4 0 0 1-4-4V4a4 4 0 0 1 4-4z"/>
    <path fill="#FFF" fill-rule="evenodd" d="M27.534 15.564l-4.908 4.908c-.024.029-.034.065-.061.092l-4.969 4.97c-.302.302-.7.443-1.096.435a1.496 1.496 0 0 1-1.096-.435l-4.969-4.97a1.505 1.505 0 1 1 2.13-2.129L16.5 22.37l3.874-3.874c.025-.029.034-.065.061-.092l4.969-4.969a1.506 1.506 0 0 1 2.13 2.129z"/>
</svg>
