<svg xmlns="http://www.w3.org/2000/svg" width="159" height="182">
    <defs>
        <filter id="a" width="159" height="182" x="0" y="0" filterUnits="userSpaceOnUse">
            <feOffset dy="10" in="SourceAlpha"/>
            <feGaussianBlur result="blurOut" stdDeviation="4.472"/>
            <feFlood flood-color="#ECA13E" result="floodOut"/>
            <feComposite in="floodOut" in2="blurOut" operator="atop"/>
            <feComponentTransfer>
                <feFuncA slope=".5" type="linear"/>
            </feComponentTransfer>
            <feMerge>
                <feMergeNode/>
                <feMergeNode in="SourceGraphic"/>
            </feMerge>
        </filter>
        <linearGradient id="b" x1="0%" x2="0%" y1="100%" y2="0%">
            <stop offset="0%" stop-color="#FDAC42"/>
            <stop offset="100%" stop-color="#FDD341"/>
        </linearGradient>
    </defs>
    <path fill="#FFF" fill-rule="evenodd" d="M65.439 145.753c-12.247-7.51-35.941-22.032-39.421-24.173C19 116.8 19 109.177 19 109.177l.002-57.358S19 43.521 26.08 39.359l39.359-24.135C79 6.915 79 6.915 92.584 15.24l39.301 24.099c7.115 4.395 7.11 12.465 7.11 12.465v57.376s.005 7.988-7.11 12.457L92.57 145.745c-13.57 8.327-13.57 8.327-27.131.008z" filter="url(#a)"/>
    <path fill="#FFF" fill-rule="evenodd" d="M110.109 51.485L87.444 80.541l22.65 29.037H93.207L79 91.366l-14.207 18.212H47.906l22.65-29.037-22.665-29.056h16.887L79 69.717l14.222-18.232h16.887z"/>
    <path fill="url(#b)" d="M110.109 51.485L87.444 80.541l22.65 29.037H93.207L79 91.366l-14.207 18.212H47.906l22.65-29.037-22.665-29.056h16.887L79 69.717l14.222-18.232h16.887z"/>
</svg>
