<svg xmlns="http://www.w3.org/2000/svg" width="10" height="13">
    <path fill="#15BBA6" fill-rule="evenodd" d="M9 13H1a1 1 0 0 1-1-1V6a1 1 0 0 1 1-1h1V3a3 3 0 1 1 6 0H6a1 1 0 0 0-2 0v2h5a1 1 0 0 1 1 1v6a1 1 0 0 1-1 1z"/>
</svg>
