<svg xmlns="http://www.w3.org/2000/svg" width="82" height="26">
    <defs>
        <filter id="a">
            <feFlood flood-color="#5332A0" flood-opacity="1" result="floodOut"/>
            <feComposite in="floodOut" in2="SourceGraphic" operator="atop" result="compOut"/>
            <feBlend in="compOut" in2="SourceGraphic"/>
        </filter>
    </defs>
    <g fill="#4E847F" fill-rule="evenodd" filter="url(#a)">
        <path d="M17.187 23.263l2.063 2.053V26H2.75v-.684l2.062-2.053C2.2 23.263 0 21.074 0 18.474v-13C0 .684 4.95 0 11 0s11 .684 11 5.474v13c0 2.6-2.2 4.789-4.813 4.789zM5 20a2 2 0 1 0 .001-3.999A2 2 0 0 0 5 20zm5-15H3v7h7V5zm9 0h-7v7h7V5zm-2 11a2 2 0 1 0 0 4 2 2 0 0 0 0-4zM81.077 19.036c-.126.126-.303.189-.53.189-.229 0-.409-.063-.541-.189-.132-.126-.197-.303-.197-.531v-4.788c0-.816-.16-1.41-.478-1.782-.318-.372-.825-.558-1.521-.558-.804 0-1.446.246-1.925.738-.481.492-.72 1.158-.72 1.998v4.392c0 .228-.064.405-.189.531-.127.126-.304.189-.531.189-.229 0-.409-.063-.54-.189-.133-.126-.198-.303-.198-.531v-7.596c0-.216.065-.39.198-.522.131-.132.311-.198.54-.198.216 0 .386.066.513.198.125.132.189.3.189.504v.918a2.938 2.938 0 0 1 1.205-1.233c.516-.282 1.104-.423 1.764-.423 2.1 0 3.15 1.158 3.15 3.474v4.878c0 .228-.063.405-.189.531zm-11.637.189a.706.706 0 0 1-.522-.198.706.706 0 0 1-.198-.522v-.864a2.575 2.575 0 0 1-1.044 1.197c-.468.282-1.008.423-1.619.423a3.552 3.552 0 0 1-1.557-.342 2.779 2.779 0 0 1-1.126-.954 2.358 2.358 0 0 1-.414-1.35c0-.66.168-1.173.505-1.539.335-.366.887-.63 1.655-.792.768-.162 1.836-.243 3.204-.243h.396v-.594c0-.72-.147-1.248-.441-1.584-.294-.336-.771-.504-1.43-.504-.817 0-1.645.222-2.485.666-.323.204-.552.306-.684.306a.462.462 0 0 1-.36-.162.6.6 0 0 1-.144-.414.68.68 0 0 1 .153-.441c.102-.126.267-.255.495-.387.42-.24.897-.429 1.432-.567a6.334 6.334 0 0 1 1.593-.207c2.195 0 3.294 1.152 3.294 3.456v4.896c0 .216-.063.39-.19.522-.125.132-.296.198-.513.198zm-.72-4.248h-.324c-1.056 0-1.86.045-2.412.135-.552.09-.944.24-1.178.45-.235.21-.351.519-.351.927 0 .468.171.855.512 1.161.343.306.771.459 1.287.459.72 0 1.311-.243 1.773-.729.462-.486.693-1.113.693-1.881v-.522zm-11.376 3.708a.867.867 0 0 1-.792.504.837.837 0 0 1-.45-.135.966.966 0 0 1-.342-.369l-3.492-7.56a.535.535 0 0 1-.072-.27c0-.18.081-.336.243-.468a.823.823 0 0 1 .531-.198.689.689 0 0 1 .612.414l3.006 6.75 3.006-6.714c.132-.289.342-.432.63-.432.18 0 .342.06.486.18.144.12.216.27.216.45a.57.57 0 0 1-.072.288l-3.51 7.56zm-9.018.018c-.636.372-1.368.558-2.196.558-.827 0-1.557-.186-2.187-.558a3.719 3.719 0 0 1-1.458-1.593c-.341-.69-.512-1.491-.512-2.403 0-.912.171-1.713.512-2.403a3.719 3.719 0 0 1 1.458-1.593c.63-.372 1.36-.558 2.187-.558.828 0 1.56.186 2.196.558a3.702 3.702 0 0 1 1.467 1.593c.343.69.514 1.491.514 2.403 0 .912-.171 1.713-.514 2.403a3.702 3.702 0 0 1-1.467 1.593zm-.215-6.471c-.469-.582-1.129-.873-1.981-.873-.852 0-1.512.291-1.98.873-.467.582-.701 1.407-.701 2.475 0 1.08.23 1.908.692 2.484.462.576 1.126.864 1.989.864.865 0 1.527-.285 1.989-.855.462-.57.693-1.401.693-2.493 0-1.068-.234-1.893-.701-2.475zm-8.713 6.993c-.156 0-.318-.072-.486-.216l-4.698-4.05v3.546c0 .228-.069.405-.207.531a.732.732 0 0 1-.513.189.757.757 0 0 1-.531-.189c-.138-.126-.207-.303-.207-.531V7.075c0-.228.069-.405.207-.531a.757.757 0 0 1 .531-.189c.204 0 .375.063.513.189s.207.303.207.531v7.308l4.302-3.942a.671.671 0 0 1 .486-.216.64.64 0 0 1 .468.198.64.64 0 0 1 .198.468.718.718 0 0 1-.252.54l-3.546 3.168 3.888 3.384c.192.18.288.372.288.576 0 .18-.063.336-.189.468a.61.61 0 0 1-.459.198z"/>
    </g>
</svg>
