<svg xmlns="http://www.w3.org/2000/svg" width="86" height="30">
    <defs>
        <filter id="a">
            <feFlood flood-color="#5332A0" flood-opacity="1" result="floodOut"/>
            <feComposite in="floodOut" in2="SourceGraphic" operator="atop" result="compOut"/>
            <feBlend in="compOut" in2="SourceGraphic"/>
        </filter>
    </defs>
    <g fill-rule="evenodd" filter="url(#a)">
        <path fill="#84D7A7" d="M17.982 15.215l-.001.012c-.009.048-.028.09-.044.136-.022.078-.033.159-.076.233-.007.011-.019.015-.026.026l-7.86 13.734a1.044 1.044 0 0 1-.415.494c-.089.051-.185.069-.281.092-.006.002-.011.005-.017.006-.088.02-.173.027-.262.024a1.008 1.008 0 0 1-.262-.024l-.018-.006c-.095-.023-.191-.041-.28-.092a1.044 1.044 0 0 1-.415-.494L.165 15.622c-.007-.011-.019-.015-.026-.026-.043-.074-.054-.154-.076-.233-.016-.046-.035-.088-.044-.136l-.001-.012a1.126 1.126 0 0 1 0-.338.952.952 0 0 1 .121-.473c.008-.013.022-.02.03-.033L8.025.644c.089-.198.217-.378.415-.493.088-.052.185-.07.28-.093l.018-.006c.088-.02.173-.027.262-.024a.996.996 0 0 1 .261.024l.019.006c.095.023.192.041.28.093.198.115.326.295.415.493l7.856 13.727c.008.013.022.02.03.033.087.149.118.31.121.473.013.112.021.224 0 .338zM9 26.682l5.113-8.935-4.436 2.527c-.032.024-.068.038-.103.058l-.004.003-.006.002a1.067 1.067 0 0 1-.379.13c-.063.012-.123.007-.185.008-.062-.001-.122.004-.185-.008a1.067 1.067 0 0 1-.379-.13l-.006-.002-.005-.003c-.034-.02-.07-.034-.102-.058l-4.436-2.527L9 26.682zM9 3.318l-5.113 8.935 4.435-2.526c.033-.025.07-.039.105-.06l.003-.001.004-.002c.118-.067.244-.111.381-.131.063-.012.123-.007.185-.008.062.001.122-.004.185.008.137.02.264.064.382.132l.003.001.002.001c.036.021.073.035.106.06l4.435 2.526L9 3.318zm0 8.44L3.308 15 9 18.242 14.692 15 9 11.758z"/>
        <path fill="#363636" d="M84.592 20.839a.564.564 0 0 1-.252-.062 3.744 3.744 0 0 1-.321-.19 3.986 3.986 0 0 0-.651-.343 1.969 1.969 0 0 0-.721-.119c-.635 0-1.127.215-1.477.644-.35.43-.525 1.028-.525 1.793 0 .766.172 1.357.518 1.772.345.415.835.623 1.47.623.28 0 .527-.042.742-.126a4.01 4.01 0 0 0 .657-.336 2.68 2.68 0 0 1 .308-.168.685.685 0 0 1 .28-.07c.131 0 .239.053.323.161a.628.628 0 0 1 .126.399c0 .131-.036.25-.105.357a1.262 1.262 0 0 1-.357.33c-.28.186-.607.331-.98.433a4.254 4.254 0 0 1-1.135.154c-.662 0-1.243-.144-1.742-.434-.5-.289-.887-.7-1.162-1.232-.276-.532-.414-1.149-.414-1.849 0-.709.143-1.335.428-1.877a3.082 3.082 0 0 1 1.197-1.26c.513-.299 1.101-.448 1.764-.448.354 0 .711.051 1.071.154.359.103.678.243.958.42.299.206.449.444.449.714a.631.631 0 0 1-.126.4.393.393 0 0 1-.323.16zm-.503-8.776a.724.724 0 0 1-.504-.175c-.131-.116-.196-.282-.196-.497V7.764c0-.57-.103-.983-.308-1.239-.206-.257-.528-.386-.966-.386-.514 0-.92.175-1.218.526-.299.35-.448.828-.448 1.435v3.291c0 .215-.066.381-.196.497-.131.117-.304.175-.518.175a.724.724 0 0 1-.504-.175c-.131-.116-.196-.282-.196-.497V7.764c0-.57-.103-.983-.308-1.239-.206-.257-.528-.386-.966-.386-.514 0-.922.175-1.225.526-.304.35-.455.828-.455 1.435v3.291c0 .215-.066.381-.196.497a.728.728 0 0 1-.504.175.751.751 0 0 1-.511-.175c-.136-.116-.203-.282-.203-.497v-5.7c0-.205.07-.369.21-.49a.745.745 0 0 1 .504-.182c.196 0 .357.058.483.175.126.117.189.278.189.483v.518c.205-.392.49-.69.854-.896a2.524 2.524 0 0 1 1.26-.308c.522 0 .954.107 1.295.322.34.215.595.546.763.994.205-.401.508-.721.91-.959a2.636 2.636 0 0 1 1.372-.357c1.53 0 2.296.919 2.296 2.759v3.641c0 .215-.066.381-.196.497-.131.117-.304.175-.518.175zm-9.632 5.359c-.159.15-.374.224-.644.224-.271 0-.486-.074-.644-.224a.768.768 0 0 1-.238-.588c0-.243.079-.436.238-.581.158-.145.373-.217.644-.217.261 0 .473.072.637.217a.739.739 0 0 1 .245.581c0 .243-.08.439-.238.588zm-2.478-5.359a.656.656 0 0 1-.476-.175.62.62 0 0 1-.182-.469v-.532a2.192 2.192 0 0 1-.889.896c-.378.206-.8.308-1.267.308-1.661 0-2.492-.915-2.492-2.744V5.705c0-.215.063-.383.189-.504s.301-.182.525-.182c.215 0 .385.061.511.182s.189.289.189.504v3.627c0 .551.112.958.336 1.219.224.261.569.392 1.036.392.551 0 .992-.177 1.323-.532.331-.355.497-.827.497-1.415V5.705c0-.205.065-.371.196-.497a.715.715 0 0 1 .518-.189c.215 0 .385.061.511.182s.189.289.189.504v5.7a.618.618 0 0 1-.196.476.732.732 0 0 1-.518.182zm-4.158 7.502c.308.206.462.444.462.714a.56.56 0 0 1-.133.378.402.402 0 0 1-.315.155.621.621 0 0 1-.252-.056 3.518 3.518 0 0 1-.336-.183 4.75 4.75 0 0 0-.707-.35 2.311 2.311 0 0 0-.819-.126c-.392 0-.707.084-.945.252a.798.798 0 0 0-.357.687c0 .261.109.464.329.609.219.145.632.282 1.239.413.625.131 1.115.28 1.47.448.354.168.609.376.763.623.154.248.231.563.231.946 0 .606-.255 1.095-.763 1.463-.509.369-1.188.553-2.037.553-.952 0-1.732-.196-2.338-.587a1.07 1.07 0 0 1-.357-.323.698.698 0 0 1-.105-.378c0-.149.042-.276.126-.378a.396.396 0 0 1 .322-.154c.121 0 .312.075.574.224.28.149.553.271.819.364.266.093.599.14 1.001.14.448 0 .798-.079 1.05-.238a.752.752 0 0 0 .378-.672.655.655 0 0 0-.147-.448c-.098-.113-.269-.213-.511-.302a8.92 8.92 0 0 0-1.078-.287c-.822-.177-1.412-.418-1.771-.721-.36-.303-.539-.716-.539-1.239 0-.401.116-.764.35-1.086.233-.322.555-.572.966-.749.41-.177.877-.266 1.4-.266.373 0 .737.049 1.092.147.354.098.667.24.938.427zM64.643 8.814h-4.326c.093 1.447.789 2.171 2.086 2.171.345 0 .644-.047.896-.14.252-.093.518-.215.798-.364.028-.019.105-.058.231-.119a.76.76 0 0 1 .315-.091c.131 0 .238.051.322.154a.599.599 0 0 1 .126.392c0 .271-.168.5-.504.686a4.412 4.412 0 0 1-1.071.434 4.324 4.324 0 0 1-1.113.154c-1.083 0-1.937-.315-2.562-.945-.625-.63-.938-1.492-.938-2.584 0-.7.138-1.321.413-1.863a3.04 3.04 0 0 1 1.162-1.26c.499-.299 1.066-.448 1.701-.448.915 0 1.638.294 2.17.882.532.588.798 1.382.798 2.381 0 .374-.168.56-.504.56zm-1.197-2.276c-.294-.34-.707-.51-1.239-.51-.541 0-.975.172-1.302.517-.327.346-.523.832-.588 1.457h3.612c-.028-.635-.189-1.123-.483-1.464zm-7.623 19.553c-.952 0-1.732-.196-2.338-.587a1.07 1.07 0 0 1-.357-.323.698.698 0 0 1-.105-.378c0-.149.042-.276.126-.378a.396.396 0 0 1 .322-.154c.121 0 .312.075.574.224.28.149.553.271.819.364.266.093.599.14 1.001.14.448 0 .798-.079 1.05-.238a.752.752 0 0 0 .378-.672.655.655 0 0 0-.147-.448c-.098-.113-.269-.213-.511-.302a8.92 8.92 0 0 0-1.078-.287c-.822-.177-1.412-.418-1.771-.721-.36-.303-.539-.716-.539-1.239 0-.401.116-.764.35-1.086.233-.322.555-.572.966-.749.41-.177.877-.266 1.4-.266.373 0 .737.049 1.092.147.354.098.667.24.938.427.308.206.462.444.462.714a.56.56 0 0 1-.133.378.402.402 0 0 1-.315.155.621.621 0 0 1-.252-.056 3.518 3.518 0 0 1-.336-.183 4.75 4.75 0 0 0-.707-.35 2.311 2.311 0 0 0-.819-.126c-.392 0-.707.084-.945.252a.798.798 0 0 0-.357.687c0 .261.109.464.329.609.219.145.632.282 1.239.413.625.131 1.115.28 1.47.448.354.168.609.376.763.623.154.248.231.563.231.946 0 .606-.255 1.095-.763 1.463-.509.369-1.188.553-2.037.553zm2.058-19.854l-.42.042c-.588.056-1.024.262-1.309.616-.285.355-.427.785-.427 1.289v3.207c0 .224-.065.392-.196.504a.748.748 0 0 1-.504.168.775.775 0 0 1-.511-.168c-.135-.112-.203-.28-.203-.504v-5.7c0-.215.068-.38.203-.497a.753.753 0 0 1 .511-.175c.187 0 .343.058.469.175.126.117.189.278.189.483v.672c.187-.41.457-.723.812-.938a2.721 2.721 0 0 1 1.204-.378l.196-.014c.448-.028.672.164.672.574 0 .205-.051.36-.154.462-.103.103-.28.164-.532.182zm-5.628 2.577h-4.326c.093 1.447.789 2.171 2.086 2.171.345 0 .644-.047.896-.14.252-.093.518-.215.798-.364.028-.019.105-.058.231-.119a.76.76 0 0 1 .315-.091c.131 0 .238.051.322.154a.599.599 0 0 1 .126.392c0 .271-.168.5-.504.686a4.412 4.412 0 0 1-1.071.434 4.324 4.324 0 0 1-1.113.154c-1.083 0-1.937-.315-2.562-.945-.625-.63-.938-1.492-.938-2.584 0-.7.138-1.321.413-1.863a3.04 3.04 0 0 1 1.162-1.26c.499-.299 1.066-.448 1.701-.448.915 0 1.638.294 2.17.882.532.588.798 1.382.798 2.381 0 .374-.168.56-.504.56zm-1.197-2.276c-.294-.34-.707-.51-1.239-.51-.541 0-.975.172-1.302.517-.327.346-.523.832-.588 1.457h3.612c-.028-.635-.189-1.123-.483-1.464zm-3.29 13.139c.443.457.665 1.154.665 2.087v3.627c0 .215-.061.381-.182.497-.121.117-.289.176-.504.176a.66.66 0 0 1-.49-.183.663.663 0 0 1-.182-.49v-.518a1.968 1.968 0 0 1-.791.903c-.35.211-.758.315-1.225.315-.448 0-.859-.09-1.232-.273a2.116 2.116 0 0 1-.875-.763 1.977 1.977 0 0 1-.315-1.093c0-.494.128-.884.385-1.169.257-.284.681-.487 1.274-.609.593-.121 1.407-.182 2.443-.182h.322v-.406c0-.523-.107-.901-.322-1.135-.215-.233-.56-.35-1.036-.35-.327 0-.635.042-.924.126a6.919 6.919 0 0 0-.952.365c-.252.14-.429.21-.532.21a.43.43 0 0 1-.343-.155.574.574 0 0 1-.133-.391c0-.141.04-.264.119-.372.079-.107.208-.212.385-.315a4.83 4.83 0 0 1 1.148-.427 5.371 5.371 0 0 1 1.274-.161c.905 0 1.58.229 2.023.686zm-.959 3.123c-.728 0-1.288.033-1.68.098-.392.066-.672.175-.84.329-.168.155-.252.376-.252.666 0 .336.121.611.364.826.243.215.546.322.91.322.513 0 .933-.175 1.26-.525.327-.35.49-.801.49-1.351V22.8h-.252zm-2.548-10.737c-.215 0-.385-.061-.511-.182a.647.647 0 0 1-.189-.49V7.764c0-.56-.114-.971-.343-1.233-.228-.261-.585-.392-1.071-.392-.569 0-1.027.178-1.372.533-.345.355-.518.831-.518 1.428v3.291a.647.647 0 0 1-.189.49c-.126.121-.296.182-.511.182a.732.732 0 0 1-.518-.182.634.634 0 0 1-.196-.49V2.722c0-.205.068-.369.203-.49a.76.76 0 0 1 .525-.182c.205 0 .371.058.497.175a.609.609 0 0 1 .189.469v3.501c.234-.392.546-.69.938-.896.392-.205.84-.308 1.344-.308 1.624 0 2.436.919 2.436 2.759v3.641a.634.634 0 0 1-.196.49.73.73 0 0 1-.518.182zm-8.239-1.456c.182.205.46.322.833.35l.392.028c.206.019.353.073.441.161a.5.5 0 0 1 .133.371.483.483 0 0 1-.217.427c-.144.098-.357.138-.637.119l-.378-.028c-.756-.055-1.32-.287-1.694-.693-.373-.406-.56-1.006-.56-1.8V6.251h-.84c-.41 0-.616-.182-.616-.546 0-.168.054-.301.161-.399.107-.098.259-.147.455-.147h.84V3.716c0-.214.063-.382.189-.504.126-.121.297-.182.511-.182a.73.73 0 0 1 .518.182c.131.122.196.29.196.504v1.443h1.386c.196 0 .348.049.455.147a.511.511 0 0 1 .161.399c0 .178-.053.313-.161.407-.107.093-.259.139-.455.139h-1.386v3.39c0 .438.091.761.273.966zm-4.109-1.793h-4.326c.094 1.447.789 2.171 2.086 2.171.346 0 .644-.047.896-.14.252-.093.518-.215.798-.364.028-.019.105-.058.231-.119a.76.76 0 0 1 .315-.091c.131 0 .238.051.322.154a.599.599 0 0 1 .126.392c0 .271-.168.5-.504.686a4.395 4.395 0 0 1-1.071.434 4.324 4.324 0 0 1-1.113.154c-1.082 0-1.937-.315-2.562-.945-.625-.63-.938-1.492-.938-2.584 0-.7.138-1.321.413-1.863a3.04 3.04 0 0 1 1.162-1.26c.5-.299 1.066-.448 1.701-.448.915 0 1.638.294 2.17.882.532.588.798 1.382.798 2.381 0 .374-.168.56-.504.56zm-1.197-2.276c-.294-.34-.707-.51-1.239-.51-.541 0-.975.172-1.302.517-.326.346-.522.832-.588 1.457h3.612c-.028-.635-.189-1.123-.483-1.464zm-2.919 12.901c.514-.299 1.102-.448 1.764-.448.355 0 .712.051 1.071.154.359.103.679.243.959.42.299.206.448.444.448.714a.631.631 0 0 1-.126.4.391.391 0 0 1-.322.16.558.558 0 0 1-.252-.062 3.736 3.736 0 0 1-.322-.19 3.906 3.906 0 0 0-.651-.343 1.969 1.969 0 0 0-.721-.119c-.635 0-1.127.215-1.477.644-.35.43-.525 1.028-.525 1.793 0 .766.173 1.357.518 1.772.345.415.836.623 1.47.623.28 0 .528-.042.742-.126.215-.084.434-.196.658-.336.103-.065.205-.121.308-.168a.681.681 0 0 1 .28-.07.39.39 0 0 1 .322.161.628.628 0 0 1 .126.399c0 .131-.035.25-.105.357-.07.108-.189.217-.357.33a3.35 3.35 0 0 1-.98.433 4.241 4.241 0 0 1-1.134.154c-.663 0-1.243-.144-1.743-.434a2.961 2.961 0 0 1-1.162-1.232c-.275-.532-.413-1.149-.413-1.849 0-.709.143-1.335.427-1.877a3.095 3.095 0 0 1 1.197-1.26zm9.324-3.389c.205 0 .373.058.504.175.131.117.196.287.196.511v8.655c0 .224-.065.392-.196.504a.749.749 0 0 1-.504.169.775.775 0 0 1-.511-.169c-.135-.112-.203-.28-.203-.504v-8.655c0-.224.068-.394.203-.511a.753.753 0 0 1 .511-.175zm36.694 2.969c.205 0 .373.058.504.175.13.117.196.287.196.511v5.686c0 .224-.066.392-.196.504a.749.749 0 0 1-.504.169.773.773 0 0 1-.511-.169c-.136-.112-.203-.28-.203-.504v-5.686c0-.224.067-.394.203-.511a.751.751 0 0 1 .511-.175z"/>
    </g>
</svg>
