<svg xmlns="http://www.w3.org/2000/svg" width="26" height="28">
    <path fill="#FFF" fill-rule="evenodd" d="M25.975 20.122a.98.98 0 0 1-.04.201.957.957 0 0 1-.08.164.961.961 0 0 1-.111.166c-.041.047-.089.084-.138.122-.036.029-.061.067-.102.091l-11.895 6.929c-.006.004-.012.006-.018.011l-.104.06c-.01.006-.021.008-.031.011a.996.996 0 0 1-.229.077c-.018.005-.035.015-.053.018-.019.004-.038.002-.056.004-.04.005-.076.024-.118.024-.042 0-.078-.019-.118-.024-.019-.002-.037 0-.056-.004-.018-.003-.035-.013-.053-.018a.996.996 0 0 1-.229-.077c-.01-.003-.021-.005-.031-.011l-.103-.06c-.006-.005-.013-.007-.019-.011L.496 20.866c-.041-.024-.066-.062-.102-.09-.049-.039-.097-.076-.138-.123a.961.961 0 0 1-.111-.166.957.957 0 0 1-.08-.164.98.98 0 0 1-.04-.201C.019 20.08 0 20.043 0 20V8a1 1 0 0 1 2 0v11.433l10 5.825V15a1 1 0 0 1 2 0v10.258l10-5.825V8a1 1 0 0 1 2 0v12c0 .043-.019.08-.025.122z"/>
    <path fill="#7DD79F" fill-rule="evenodd" d="M25.984 8a.985.985 0 0 1-.013.188.942.942 0 0 1-.065.194c-.016.039-.018.081-.039.118-.01.018-.028.028-.04.045-.036.056-.082.101-.13.149-.048.048-.093.096-.148.132-.017.012-.027.03-.045.04l-11.895 6.929c-.006.004-.012.006-.018.011l-.104.06c-.019.011-.041.011-.061.021a.949.949 0 0 1-.252.085c-.059.012-.115.012-.174.013-.059-.001-.115-.001-.174-.013a.949.949 0 0 1-.252-.085c-.02-.01-.042-.01-.061-.021l-.103-.06c-.006-.005-.013-.007-.019-.011L.496 8.866c-.018-.01-.028-.028-.045-.04-.055-.036-.1-.084-.148-.132-.048-.048-.094-.093-.13-.149-.012-.017-.029-.027-.04-.045-.021-.037-.023-.079-.039-.118a.942.942 0 0 1-.065-.194A.985.985 0 0 1 .016 8c0-.064.001-.125.013-.188a.95.95 0 0 1 .065-.195c.016-.038.018-.08.039-.117.01-.018.028-.028.04-.045.036-.056.083-.101.13-.15.048-.048.093-.095.148-.131.017-.012.027-.03.045-.04L12.391.205c.006-.004.013-.006.019-.011l.103-.06c.019-.011.041-.011.061-.021a.949.949 0 0 1 .252-.085c.059-.012.115-.012.174-.013.059.001.115.001.174.013.089.015.17.046.252.085.02.01.042.01.061.021l.104.06c.006.005.012.007.018.011l11.895 6.929c.018.01.028.028.045.04.055.036.1.083.148.131.047.048.094.094.131.15.011.017.029.027.039.045.021.037.023.079.039.117a.95.95 0 0 1 .065.195.985.985 0 0 1 .013.188zM13 13.84L23.026 8 13 2.16 2.974 8 13 13.84z"/>
</svg>
